{
  "title": "Example config",
  "baseUrl": "sangha.example.com",
  "social": {
    "twitter": "@techcultivation"
  },
  "metadata": {
    "home": {
      "title": "Welcome",
      "description": "Fast and easy donations to Open Source Projects",
      "image": "https://sandbox.api.sangha.techcultivation.org/images/Sangha.png"
    },
    "checkout": {
      "title": "Checkout",
      "robots": "noindex"
    },
    "faq": {
      "title": "Frequently Asked Questions"
    },
    "how-it-works": {
      "title": "How Sangha works"
    },
    "projects": {
      "title": "Project list",
      "description": "A list of all the Open Source Projects you want to donate to"
    }
  },
  "paymentGateways": {
    "bank_transfer_sepa": {
      "account_owner": "My awesome gGmbH",
      "name": "Muster Bank, City, Germany",
      "iban": "DEXXXXXXXXXXXX",
      "bic": "GENOXXXXXX"
    },
    "bank_transfer_uswire": {
      "number": "2342",
      "owner": "My awesome gGmbH",
      "address": ["Street", "New York 10010", "United States of America"],
      "ach_routing": "2342",
      "wire_routing": "2342"
    },
    "stripe": {
      "pubkey": "pk_test_key"
    },
    "paypal": {
      "sandbox": true,
      "sandboxId": "random_looking_string",
      "productionId": "random_looking_string"
    },
    "cash": {
      "text": "You can hand us the money at events we attend or send it to the following address.",
      "address": {
        "name": "My awesome gGmbH",
        "street": "Musterstreet 1",
        "country": "Germany",
        "zip": "13357",
        "city": "Berlin"
      }
    },
    "voucher": {
      "types": ["Amazon", "Netflix", "Paysafecard"]
    }
  },
  "donationMinimumCents": 500
}
